Product-Id,Min-Price,Max-Price,Target-Price
0,119,236,177
1,155,285,220
2,199,370,284
3,165,290,227
4,130,276,203
5,92,225,158
6,38,153,95
7,119,328,223
8,110,275,192
9,43,147,95
10,88,216,152
11,91,224,157
12,78,231,154
13,86,237,161
14,178,394,286
15,178,429,303
16,146,323,234
17,183,377,280
18,51,179,115
19,71,216,143
